export ABW_MD5SUM := 7a3815b506d064313ba309617b6f5a0b
export ABW_TARBALL := libabw-0.1.1.tar.bz2
export APACHE_COMMONS_LOGGING_MD5SUM := ce977548f1cbf46918e93cd38ac35163
export APACHE_COMMONS_LOGGING_TARBALL := commons-logging-1.2-src.tar.gz
export APR_MD5SUM := eff9d741b0999a9bbab96862dd2a2a3d
export APR_TARBALL := apr-1.4.8.tar.gz
export APR_UTIL_MD5SUM := 71a11d037240b292f824ba1eb537b4e3
export APR_UTIL_TARBALL := apr-util-1.5.3.tar.gz
export BOOST_MD5SUM := 65a840e1a0b13a558ff19eeb2c4f0cbe
export BOOST_TARBALL := boost_1_60_0.tar.bz2
export BREAKPAD_TARBALL := breakpad.zip
export BREAKPAD_MD5SUM := 415ce291aa6f2ee1d5db7b62bf62ade8
export BSH_TARBALL := beeca87be45ec87d241ddd0e1bad80c1-bsh-2.0b6-src.zip
export BZIP2_TARBALL := 00b516f4704d4a7cb50a1d97e6e8e15b-bzip2-1.0.6.tar.gz
export CAIRO_TARBALL := f101a9e88b783337b20b2e26dfd26d5f-cairo-1.10.2.tar.gz
export CDR_MD5SUM := 6e3062b55b149d7b3c6aedb3bb5b86e2
export CDR_TARBALL := libcdr-0.1.2.tar.bz2
export CLUCENE_TARBALL := 48d647fbd8ef8889e5a7f422c1bfda94-clucene-core-2.3.3.4.tar.gz
export CMIS_MD5SUM := 3270154f0f40d86fce849b161f914101
export CMIS_TARBALL :=libcmis-0.5.1.tar.gz
export COINMP_MD5SUM := 1cce53bf4b40ae29790d2c5c9f8b1129
export COINMP_TARBALL := CoinMP-1.7.6.tgz
export COLLADA2GLTF_TARBALL := 4b87018f7fff1d054939d19920b751a0-collada2gltf-master-cb1d97788a.tar.bz2
export CPPUNIT_MD5SUM := d1c6bdd5a76c66d2c38331e2d287bc01
export CPPUNIT_TARBALL := cppunit-1.13.2.tar.gz
export CT2N_TARBALL := 1f467e5bb703f12cbbb09d5cf67ecf4a-converttexttonumber-1-5-0.oxt
export CURL_MD5SUM := 4e1ef056e117b4d25f4ec42ac609c0d4
export CURL_TARBALL := curl-7.52.1.tar.gz
export DBGHELP_DLL := 13fbc2e8b37ddf28181dd6d8081c2b8e-dbghelp.dll
export EBOOK_MD5SUM := 6b48eda57914e6343efebc9381027b78
export EBOOK_TARBALL := libe-book-0.1.2.tar.bz2
export EPM_TARBALL := 3ade8cfe7e59ca8e65052644fed9fca4-epm-3.7.tar.gz
export ETONYEK_MD5SUM := 77ff46936dcc83670557274e7dd2aa33
export ETONYEK_VERSION_MICRO := 6
export ETONYEK_TARBALL := libetonyek-0.1.$(ETONYEK_VERSION_MICRO).tar.bz2
export EXPAT_MD5SUM := 2f47841c829facb346eb6e3fab5212e2
export EXPAT_TARBALL := expat-2.2.0.tar.bz2
export FIREBIRD_MD5SUM := b0b5293991fcf07347b38431c80be1d4
export FIREBIRD_TARBALL := Firebird-2.5.5.26952-0.tar.bz2
# FIREBIRD_MD5SUM := b259c2d1c60a03bd104108405ae990a7
# export FIREBIRD_TARBALL := Firebird-3.0-alpha1-20130302.tar.gz
export FONTCONFIG_TARBALL := 77e15a92006ddc2adbb06f840d591c0e-fontconfig-2.8.0.tar.gz
export FONT_CALADEA_TARBALL := 368f114c078f94214a308a74c7e991bc-crosextrafonts-20130214.tar.gz
export FONT_CARLITO_TARBALL := c74b7223abe75949b4af367942d96c7a-crosextrafonts-carlito-20130920.tar.gz
export FONT_DEJAVU_TARBALL := d8b5214d35bcd2bfcb2cffa7795b351d-dejavu-fonts-ttf-2.35.zip
export FONT_GENTIUM_TARBALL := 35efabc239af896dfb79be7ebdd6e6b9-gentiumbasic-fonts-1.10.zip
export FONT_LIBERATION_NARROW_TARBALL := 134d8262145fc793c6af494dcace3e71-liberation-fonts-ttf-1.07.4.tar.gz
export FONT_LIBERATION_TARBALL := 5c781723a0d9ed6188960defba8e91cf-liberation-fonts-ttf-2.00.1.tar.gz
export FONT_LINLIBERTINEG_TARBALL := e7a384790b13c29113e22e596ade9687-LinLibertineG-20120116.zip
export FONT_OPENSANS_TARBALL := 7a15edea7d415ac5150ea403e27401fd-open-sans-font-ttf-1.10.tar.gz
export FONT_PTSERIF_TARBALL := c3c1a8ba7452950636e871d25020ce0d-pt-serif-font-1.0000W.tar.gz
export FONT_SOURCECODE_TARBALL := 907d6e99f241876695c19ff3db0b8923-source-code-pro-2.030R-ro-1.050R-it.tar.gz
export FONT_SOURCESANS_TARBALL := edc4d741888bc0d38e32dbaa17149596-source-sans-pro-2.010R-ro-1.065R-it.tar.gz
export FREEHAND_MD5SUM := 8cf70c5dc4d24d2dc4a107f509d2d6d7
export FREEHAND_TARBALL := libfreehand-0.1.1.tar.bz2
export FREETYPE_TARBALL := dbf2caca1d3afd410a29217a9809d397-freetype-2.4.8.tar.bz2
export GLEW_TARBALL := 3941e9cab2f4f9d8faee3e8d57ae7664-glew-1.12.0.zip
export GLM_TARBALL := bae83fa5dc7f081768daace6e199adc3-glm-0.9.4.6-libreoffice.zip
export GLYPHY_TARBALL := 5d303fb955beb9bf112267316ca9d021-glyphy-0.2.0.tar.bz2
export GRAPHITE_TARBALL := 4311dd9ace498b57c85f611e0670df64-graphite2-minimal-1.3.8.tgz
export HARFBUZZ_MD5SUM := 9f4b6831c86135faef011e991f59f77f
export HARFBUZZ_TARBALL := harfbuzz-1.2.6.tar.bz2
export HSQLDB_TARBALL := 17410483b5b5f267aa18b7e00b65e6e0-hsqldb_1_8_0.zip
export HUNSPELL_TARBALL := 33d370f7fe5a030985e445a5672b2067-hunspell-1.4.1.tar.gz
export HYPHEN_TARBALL := 5ade6ae2a99bc1e9e57031ca88d36dad-hyphen-2.8.8.tar.gz
export ICU_TARBALL := 976734806026a4ef8bdd17937c8898b9-icu4c-57_1-src.tgz
export JFREEREPORT_FLOW_ENGINE_TARBALL := ba2930200c9f019c2d93a8c88c651a0f-flow-engine-0.9.4.zip
export JFREEREPORT_FLUTE_TARBALL := d8bd5eed178db6e2b18eeed243f85aa8-flute-1.1.6.zip
export JFREEREPORT_LIBBASE_TARBALL := eeb2c7ddf0d302fba4bfc6e97eac9624-libbase-1.1.6.zip
export JFREEREPORT_LIBFONTS_TARBALL := 3bdf40c0d199af31923e900d082ca2dd-libfonts-1.1.6.zip
export JFREEREPORT_LIBFORMULA_TARBALL := 3404ab6b1792ae5f16bbd603bd1e1d03-libformula-1.1.7.zip
export JFREEREPORT_LIBLAYOUT_TARBALL := db60e4fde8dd6d6807523deb71ee34dc-liblayout-0.2.10.zip
export JFREEREPORT_LIBLOADER_TARBALL := 97b2d4dba862397f446b217e2b623e71-libloader-1.1.6.zip
export JFREEREPORT_LIBREPOSITORY_TARBALL := 8ce2fcd72becf06c41f7201d15373ed9-librepository-1.1.6.zip
export JFREEREPORT_LIBSERIALIZER_TARBALL := f94d9870737518e3b597f9265f4e9803-libserializer-1.1.6.zip
export JFREEREPORT_LIBXML_TARBALL := ace6ab49184e329db254e454a010f56d-libxml-1.1.7.zip
export JFREEREPORT_SAC_TARBALL := 39bb3fcea1514f1369fcfc87542390fd-sacjava-1.3.zip
export JPEG_MD5SUM := 3353992aecaee1805ef4109aadd433e7
export JPEG_TARBALL := jpegsrc.v9a.tar.gz
export JPEG_TURBO_MD5SUM := 86b0d5f7507c2e6c21c00219162c3c44
export JPEG_TURBO_TARBALL := libjpeg-turbo-1.4.2.tar.gz
export LANGTAGREG_MD5SUM := 8a037dc60b16bf8c5fe871b33390a4a2
export LANGTAGREG_TARBALL := language-subtag-registry-2016-07-19.tar.bz2
export LANGUAGETOOL_TARBALL := b63e6340a02ff1cacfeadb2c42286161-JLanguageTool-1.7.0.tar.bz2
export LCMS2_MD5SUM := f4c08d38ceade4a664ebff7228910a33
export LCMS2_TARBALL := lcms2-2.6.tar.gz
export LIBATOMIC_OPS_MD5SUM := c0b86562d5aa40761a87134f83e6adcf
export LIBATOMIC_OPS_TARBALL := libatomic_ops-7_2d.zip
export LIBEOT_MD5SUM := aa24f5dd2a2992f4a116aa72af817548
export LIBEOT_TARBALL := libeot-0.01.tar.bz2
export LIBEXTTEXTCAT_TARBALL := 10d61fbaa6a06348823651b1bd7940fe-libexttextcat-3.4.4.tar.bz2
export LIBGLTF_MD5SUM := d63a9f47ab048f5009d90693d6aa6424
export LIBGLTF_TARBALL := libgltf-0.0.2.tar.bz2
export LIBLANGTAG_TARBALL := aa899eff126216dafe721149fbdb511b-liblangtag-0.5.8.tar.bz2
export LIBXMLSEC_TARBALL := ce12af00283eb90d9281956524250d6e-xmlsec1-1.2.20.tar.gz
export LIBXML_TARBALL := ae249165c173b1ff386ee8ad676815f5-libxml2-2.9.4.tar.gz
export LIBXSLT_TARBALL := a129d3c44c022de3b9dcf6d6f288d72e-libxslt-1.1.29.tar.gz
export LPSOLVE_TARBALL := 26b3e95ddf3d9c077c480ea45874b3b8-lp_solve_5.5.tar.gz
export MARIADB_TARBALL := a233181e03d3c307668b4c722d881661-mariadb_client-2.0.0-src.tar.gz
export MDDS_MD5SUM := 8855cf852a6088cfdc792c6f7ceb0243
export MDDS_TARBALL := mdds-1.2.2.tar.bz2
export MDNSRESPONDER_MD5SUM := 940057ac8b513b00e8e9ca12ef796762
export MDNSRESPONDER_TARBALL := mDNSResponder-576.30.4.tar.gz
export MSPUB_MD5SUM := ff9d0f9dd8fbc523408ea1953d5bde41
export MSPUB_TARBALL := libmspub-0.1.2.tar.bz2
export MWAW_MD5SUM := 4a8a53a9d997cf0e2bd208178797dbfb
export MWAW_VERSION_MICRO := 7
export MWAW_TARBALL := libmwaw-0.3.$(MWAW_VERSION_MICRO).tar.bz2
export MYSQLCPPCONN_TARBALL := 7239a4430efd4d0189c4f24df67f08e5-mysql-connector-c++-1.1.4.tar.gz
export MYTHES_TARBALL := a8c2c5b8f09e7ede322d5c602ff6a4b6-mythes-1.2.4.tar.gz
export NEON_TARBALL := 231adebe5c2f78fded3e3df6e958878e-neon-0.30.1.tar.gz
export NSS_TARBALL := 0e3eee39402386cf16fd7aaa7399ebef-nss-3.27-with-nspr-4.13.tar.gz
export ODFGEN_MD5SUM := 32572ea48d9021bbd6fa317ddb697abc
export ODFGEN_VERSION_MICRO := 6
export ODFGEN_TARBALL := libodfgen-0.1.$(ODFGEN_VERSION_MICRO).tar.bz2
export OPENCOLLADA_MD5SUM := 4ca8a6ef0afeefc864e9ef21b9f14bd6
export OPENCOLLADA_TARBALL := OpenCOLLADA-master-6509aa13af.tar.bz2
export OPENLDAP_TARBALL := 804c6cb5698db30b75ad0ff1c25baefd-openldap-2.4.31.tgz
export OPENSSL_MD5SUM := 9392e65072ce4b614c1392eefc1f23d0
export OPENSSL_TARBALL := openssl-1.0.2h.tar.gz
export ORCUS_MD5SUM := 205badaee72adf99422add8c4c49d669
export ORCUS_TARBALL := liborcus-0.11.2.tar.gz
export OWNCLOUD_ANDROID_LIB_MD5SUM := 593f0aa47bf2efc0efda2d28fae063b2
export OWNCLOUD_ANDROID_LIB_TARBALL := owncloud-android-library-0.9.4-no-binary-deps.tar.gz
export PAGEMAKER_MD5SUM := 5c4985a68be0b79d3f809da5e12b143c
export PAGEMAKER_TARBALL := libpagemaker-0.0.3.tar.bz2
export PIXMAN_TARBALL := c63f411b3ad147db2bcce1bf262a0e02-pixman-0.24.4.tar.bz2
export PNG_MD5SUM := 897ccec1ebfb0922e83c2bfaa1be8748
export PNG_TARBALL := libpng-1.6.28.tar.gz
export POPPLER_MD5SUM := 38c758d84437378ec4f5aae9f875301d
export POPPLER_TARBALL := poppler-0.46.0.tar.bz2
export POSTGRESQL_TARBALL := c0b4799ea9850eae3ead14f0a60e9418-postgresql-9.2.1.tar.bz2

ifeq ($(PYTHON_VERSION_MINOR),3)
export PYTHON_MD5SUM := 803a75927f8f241ca78633890c798021
export PYTHON_TARBALL := Python-3.3.5.tgz
else
export PYTHON_MD5SUM := a56c0c0b45d75a0ec9c6dee933c41c36
export PYTHON_TARBALL := Python-3.5.0.tgz
endif

export RAPTOR_TARBALL := 4ceb9316488b0ea01acf011023cf7fff-raptor2-2.0.9.tar.gz
export RASQAL_TARBALL := b12c5f9cfdb6b04efce5a4a186b8416b-rasqal-0.9.30.tar.gz
export REDLAND_TARBALL := 32f8e1417a64d3c6f2c727f9053f55ea-redland-1.0.16.tar.gz
export REVENGE_MD5SUM := 5b9ac52ec77d4d19157cf5962ebc0aea
export REVENGE_VERSION_MICRO := 4
export REVENGE_TARBALL := librevenge-0.0.$(REVENGE_VERSION_MICRO).tar.bz2
export RHINO_TARBALL := 798b2ffdc8bcfe7bca2cf92b62caf685-rhino1_5R5.zip
export SERF_MD5SUM := 4f8e76c9c6567aee1d66aba49f76a58b
export SERF_TARBALL := serf-1.2.1.tar.bz2
export SWING_TARBALL := 35c94d2df8893241173de1d16b6034c0-swingExSrc.zip
export UCPP_TARBALL := 0168229624cfac409e766913506961a8-ucpp-1.3.2.tar.gz
export VISIO_MD5SUM := cbee198a78b842b2087f32d33c522818
export VISIO_TARBALL := libvisio-0.1.5.tar.bz2
export WPD_MD5SUM := 79b56bcc349264d686a67994506ad199
export WPD_VERSION_MICRO := 1
export WPD_TARBALL := libwpd-0.10.$(WPD_VERSION_MICRO).tar.bz2
export WPG_MD5SUM := dfd066658ec9d2fb2262417039a8a1c3
export WPG_VERSION_MICRO := 1
export WPG_TARBALL := libwpg-0.3.$(WPG_VERSION_MICRO).tar.bz2
export WPS_MD5SUM := 027fb17fb9e43553aa6624dc18f830ac
export WPS_VERSION_MICRO := 3
export WPS_TARBALL := libwps-0.4.$(WPS_VERSION_MICRO).tar.bz2
export XSLTML_TARBALL := a7983f859eafb2677d7ff386a023bc40-xsltml_2.1.2.zip
export ZLIB_MD5SUM := 44d667c142d7cda120332623eab69f40
export ZLIB_TARBALL := zlib-1.2.8.tar.gz

export MOZ_ZIP_INC := $(OS)$(COM)$(if $(filter INTEL,$(CPUNAME)),I,X)inc.zip
export MOZ_ZIP_LIB := $(OS)$(COM)$(if $(filter INTEL,$(CPUNAME)),I,X)lib.zip
export MOZ_ZIP_RUNTIME := $(OS)$(COM)$(if $(filter INTEL,$(CPUNAME)),I,X)runtime.zip
